{
	"content": [
		{
			"companyId": "COMP",
			"orgId": "ORG-1",
			"name": "Org 1",
			"treeLevel": 1
		}
	],
	"pageable": {
		"pageNumber": 0,
		"pageSize": 1,
		"sort": [],
		"offset": 0,
		"paged": true,
		"unpaged": false
	},
	"last": false,
	"totalPages": 3,
	"totalElements": 3,
	"size": 1,
	"number": 0,
	"first": true,
	"numberOfElements": 1,
	"sort": [],
	"empty": false
}
